{
    "version":"2023.07.06",
    "region":"Global",
    "lists":{
        "ServerZoneIpcType":{
            "PlayerSpawn":723,
            "NpcSpawn":377,
            "NpcSpawn2":982,
            "ActorFreeSpawn":934,
            "ObjectSpawn":576,
            "ObjectDespawn":737,
            "CreateTreasure":212,
            "OpenTreasure":711,
            "TreasureFadeOut":903,
            "ActorMove":497,
            "_record_unk10_":918,
            "Transfer":397,
            "Effect":481,
            "AoeEffect8":385,
            "AoeEffect16":869,
            "AoeEffect24":748,
            "AoeEffect32":259,
            "ActorCast":816,
            "ActorControl":136,
            "ActorControlTarget":161,
            "ActorControlSelf":759,
            "DirectorVars":638,
            "ContentDirectorSync":372,
            "_record_unk23_":106,
            "EnvironmentControl":671,
            "_record_unk29_":507,
            "LandSetMap":879,
            "_record_unk31_":606,
            "EventStart":307,
            "EventFinish":293,
            "EventPlay":330,
            "EventPlay4":421,
            "EventPlay8":951,
            "EventPlay16":964,
            "EventPlay32":264,
            "EventPlay64":996,
            "EventPlay128":800,
            "EventPlay255":337,
            "BattleTalk2":597,
            "BattleTalk4":965,
            "BattleTalk8":565,
            "BalloonTalk2":985,
            "BalloonTalk4":229,
            "BalloonTalk8":198,
            "SystemLogMessage":256,
            "SystemLogMessage32":443,
            "SystemLogMessage48":472,
            "SystemLogMessage80":169,
            "SystemLogMessage144":811,
            "NpcYell":683,
            "ActorSetPos":406,
            "PrepareZoning":936,
            "_record_unk58_":833,
            "WeatherChange":240,
            "UpdateParty":877,
            "UpdateAlliance":789,
            "UpdateSpAlliance":486,
            "UpdateHpMpTp":762,
            "StatusEffectList":974,
            "StatusEffectList2":695,
            "StatusEffectList3":238,
            "EurekaStatusEffectList":408,
            "BossStatusEffectList":747,
            "EffectResultBasic":847,
            "EffectResultBasic4":733,
            "EffectResultBasic8":878,
            "EffectResultBasic16":357,
            "EffectResultBasic32":484,
            "EffectResultBasic64":475,
            "PartyPos":490,
            "AlliancePos":469,
            "SpAlliancePos":578,
            "PlaceMarker":949,
            "PlaceFieldMarkerPreset":211,
            "PlaceFieldMarker":370,
            "ActorGauge":128,
            "CharaVisualEffect":594,
            "Fall":422,
            "UpdateHate":143,
            "UpdateHater":227,
            "FirstAttack":222,
            "ModelEquip":156,
            "EquipDisplayFlags":105,
            "UnMount":519,
            "Mount":350,
            "PlayMotionSync":327,
            "CountdownInitiate":849,
            "CountdownCancel":200,
            "InitZone":216,
            "Examine":237,
            "ExamineSearchInfo":107,
            "InventoryActionAck":189,
            "MarketBoardItemListing":235,
            "MarketBoardItemListingCount":619,
            "MarketBoardItemListingHistory":971,
            "MarketBoardSearchResult":765,
            "MarketBoardPurchase":379,
            "PlayerSetup":709,
            "PlayerStats":780,
            "Playtime":741,
            "UpdateClassInfo":933,
            "UpdateInventorySlot":319,
            "UpdateSearchInfo":718,
            "WardLandInfo":644,
            "CEDirector":482,
            "Logout":306,
            "FreeCompanyInfo":561,
            "FreeCompanyDialog":574,
            "AirshipStatusList":913,
            "AirshipStatus":123,
            "AirshipExplorationResult":772,
            "SubmarineStatusList":444,
            "SubmarineProgressionStatus":557,
            "SubmarineExplorationResult":842,
            "CFPreferredRole":529,
            "CompanyAirshipStatus":117,
            "CompanySubmersibleStatus":205,
            "ContentFinderNotifyPop":294,
            "FateInfo":525,
            "UpdateRecastTimes":580,
            "SocialList":520,
            "IslandWorkshopSupplyDemand":500,
            "RSV":970,
            "RSF":485
        },
        "ClientZoneIpcType":{
            "ActionRequest":491,
            "ActionRequestGroundTargeted":120,
            "ChatHandler":799,
            "ClientTrigger ":223,
            "InventoryModifyHandler":320,
            "MarketBoardPurchaseHandler":102,
            "SetSearchInfoHandler":297,
            "UpdatePositionHandler":165,
            "UpdatePositionInstance":149
        }
    }
}