{
  "version":"2023.07.06",
  "region":"Global",
  "ver_id":9089722,
  "opcodes":{
    "0":[      "1406f1a76",      "2D3",      "278",      "PlayerSpawn"],
    "1":[      "1406f1aa6",      "179",      "280",      "NpcSpawn"],
    "2":[      "1406f1ad6",      "3D6",      "3F0",      "NpcSpawn2"],
    "3":[      "1406f1b06",      "3A6",      "008",      "ActorFreeSpawn"],
    "4":[      "1406f1b36",      "240",      "040",      "ObjectSpawn"],
    "5":[      "1406f1b66",      "2E1",      "008",      "ObjectDespawn"],
    "6":[      "1406f1b96",      "0D4",      "070",      "CreateTreasure"],
    "7":[      "1406f1bc6",      "2C7",      "018",      "OpenTreasure"],
    "8":[      "1406f1bf6",      "387",      "008",      "TreasureFadeOut"],
    "9":[      "1406f1c26",      "1F1",      "010",      "ActorMove"],
    "10":[      "1406f1c56",      "396",      "008",      "_record_unk10_"],
    "11":[      "1406f1c86",      "18D",      "010",      "Transfer"],
    "12":[      "1406f1cb6",      "1E1",      "078",      "Effect"],
    "13":[      "1406f1ce6",      "181",      "278",      "AoeEffect8"],
    "14":[      "1406f1d16",      "365",      "4B8",      "AoeEffect16"],
    "15":[      "1406f1d46",      "2EC",      "6F8",      "AoeEffect24"],
    "16":[      "1406f1d76",      "103",      "938",      "AoeEffect32"],
    "17":[      "1406f1da6",      "330",      "020",      "ActorCast"],
    "18":[      "1406f1dfb",      "088",      "018",      "ActorControl"],
    "19":[      "1406f1e5b",      "0A1",      "020",      "ActorControlTarget"],
    "20":[      "1406f1ef4",      "2F7",      "020",      "ActorControlSelf"],
    "21":[      "1406f20d6",      "27E",      "018",      "DirectorVars"],
    "22":[      "1406f2106",      "174",      "088",      "ContentDirectorSync"],
    "23":[      "1406f2136",      "06A",      "108",      "_record_unk23_"],
    "24":[      "1406f2166",      "29F",      "010",      "EnvironmentControl"],
    "25":[      "1406f2196",      "0D1",      "018",      "unk"],
    "26":[      "1406f21c6",      "354",      "030",      "unk"],
    "27":[      "1406f21f6",      "09E",      "040",      "unk"],
    "28":[      "1406f2226",      "38F",      "018",      "unk"],
    "29":[      "1406f2256",      "1FB",      "008",      "_record_unk29_"],
    "30":[      "1406f2286",      "36F",      "020",      "LandSetMap"],
    "31":[      "1406f22b6",      "25E",      "0A0",      "_record_unk31_"],
    "32":[      "1406f22e6",      "3BE",      "260",      "unk"],
    "33":[      "1406f2316",      "308",      "4C0",      "unk"],
    "34":[      "1406f2352",      "133",      "018",      "EventStart"],
    "35":[      "1406f23cb",      "125",      "010",      "EventFinish"],
    "36":[      "1406f245f",      "1A5",      "030",      "EventPlay4"],
    "37":[      "1406f2472",      "151",      "418",      "EventPlay255"],
    "38":[      "1406f2485",      "14A",      "028",      "EventPlay"],
    "39":[      "1406f2498",      "108",      "0A0",      "EventPlay32"],
    "40":[      "1406f24ab",      "320",      "220",      "EventPlay128"],
    "41":[      "1406f24d3",      "3E4",      "120",      "EventPlay64"],
    "42":[      "1406f24e6",      "3C4",      "060",      "EventPlay16"],
    "43":[      "1406f24f9",      "3B7",      "040",      "EventPlay8"],
    "44":[      "1406f2539",      "3C5",      "030",      "BattleTalk4"],
    "45":[      "1406f254c",      "255",      "028",      "BattleTalk2"],
    "46":[      "1406f255f",      "235",      "040",      "BattleTalk8"],
    "47":[      "1406f2599",      "3D9",      "030",      "BalloonTalk2"],
    "48":[      "1406f25ac",      "0E5",      "038",      "BalloonTalk4"],
    "49":[      "1406f25bf",      "0C6",      "048",      "BalloonTalk8"],
    "50":[      "1406f2608",      "32B",      "090",      "SystemLogMessage144"],
    "51":[      "1406f261b",      "1D8",      "030",      "SystemLogMessage48"],
    "52":[      "1406f262e",      "1BB",      "020",      "SystemLogMessage32"],
    "53":[      "1406f2641",      "100",      "018",      "SystemLogMessage"],
    "54":[      "1406f2654",      "0A9",      "050",      "SystemLogMessage80"],
    "55":[      "1406f2686",      "2AB",      "020",      "NpcYell"],
    "56":[      "1406f26b6",      "196",      "018",      "ActorSetPos"],
    "57":[      "1406f26e6",      "3A8",      "010",      "PrepareZoning"],
    "58":[      "1406f2716",      "341",      "018",      "_record_unk58_"],
    "59":[      "1406f2746",      "0EE",      "168",      "StatusEffectList3"],
    "60":[      "1406f2776",      "0F0",      "008",      "WeatherChange"],
    "61":[      "1406f27b2",      "36D",      "E18",      "UpdateParty"],
    "62":[      "1406f2846",      "315",      "348",      "UpdateAlliance"],
    "63":[      "1406f2876",      "1E6",      "418",      "UpdateSpAlliance"],
    "64":[      "1406f28a6",      "2FA",      "008",      "UpdateHpMpTp"],
    "65":[      "1406f28d6",      "3CE",      "180",      "StatusEffectList"],
    "66":[      "1406f2906",      "198",      "180",      "EurekaStatusEffectList"],
    "67":[      "1406f2936",      "2B7",      "180",      "StatusEffectList2"],
    "68":[      "1406f2966",      "2EB",      "2E8",      "BossStatusEffectList"],
    "69":[      "1406f29b2",      "376",      "588",      "unk"],
    "70":[      "1406f29c5",      "34C",      "168",      "unk"],
    "71":[      "1406f29d8",      "24D",      "2C8",      "unk"],
    "72":[      "1406f29eb",      "0D2",      "060",      "unk"],
    "73":[      "1406f2a31",      "1E4",      "208",      "EffectResultBasic32"],
    "74":[      "1406f2a44",      "1DB",      "408",      "EffectResultBasic64"],
    "75":[      "1406f2a57",      "165",      "108",      "EffectResultBasic16"],
    "76":[      "1406f2a6a",      "2DD",      "048",      "EffectResultBasic4"],
    "77":[      "1406f2a8c",      "36E",      "088",      "EffectResultBasic8"],
    "78":[      "1406f2a9f",      "34F",      "018",      "EffectResultBasic"],
    "79":[      "1406f2ac6",      "1EA",      "040",      "PartyPos"],
    "80":[      "1406f2af6",      "1D5",      "080",      "AlliancePos"],
    "81":[      "1406f2b26",      "242",      "0A0",      "SpAlliancePos"],
    "82":[      "1406f2b56",      "3B5",      "088",      "PlaceMarker"],
    "83":[      "1406f2b86",      "0D3",      "068",      "PlaceFieldMarkerPreset"],
    "84":[      "1406f2bb6",      "172",      "010",      "PlaceFieldMarker"],
    "85":[      "1406f2be6",      "080",      "010",      "ActorGauge"],
    "86":[      "1406f2c16",      "252",      "008",      "CharaVisualEffect"],
    "87":[      "1406f2c46",      "1A6",      "018",      "Fall"],
    "88":[      "1406f2c76",      "08F",      "048",      "UpdateHate"],
    "89":[      "1406f2ca6",      "0E3",      "108",      "UpdateHater"],
    "90":[      "1406f2cd6",      "0DE",      "010",      "FirstAttack"],
    "91":[      "1406f2d06",      "09C",      "040",      "ModelEquip"],
    "92":[      "1406f2d36",      "069",      "008",      "EquipDisplayFlags"],
    "93":[      "1406f2d66",      "27A",      "080",      "unk"],
    "94":[      "1406f2d96",      "107",      "010",      "unk"],
    "95":[      "1406f2dc6",      "149",      "040",      "unk"],
    "96":[      "1406f2df6",      "2AE",      "280",      "unk"],
    "97":[      "1406f2e26",      "389",      "310",      "unk"],
    "98":[      "1406f2e56",      "35D",      "4C0",      "unk"],
    "99":[      "1406f2e86",      "379",      "028",      "unk"],
    "100":[      "1406f2eb6",      "2C1",      "020",      "unk"],
    "101":[      "1406f2ee6",      "150",      "058",      "unk"],
    "102":[      "1406f2f16",      "1C2",      "050",      "unk"],
    "103":[      "1406f2f46",      "2A1",      "020",      "unk"],
    "104":[      "1406f2f76",      "2B2",      "128",      "unk"],
    "105":[      "1406f2fa6",      "264",      "C30",      "unk"],
    "106":[      "1406f2fd6",      "28F",      "050",      "unk"],
    "107":[      "1406f3006",      "324",      "020",      "unk"],
    "108":[      "1406f3036",      "2E3",      "0C0",      "unk"],
    "109":[      "1406f3066",      "113",      "010",      "unk"],
    "110":[      "1406f3096",      "207",      "010",      "UnMount"],
    "111":[      "1406f30c6",      "15E",      "010",      "Mount"],
    "112":[      "1406f30f6",      "147",      "040",      "PlayMotionSync"],
    "113":[      "1406f312b",      "351",      "030",      "CountdownInitiate"],
    "114":[      "1406f3166",      "0C8",      "028",      "CountdownCancel"],
    "115":[      "1406f38e2",      "0D8",      "068",      "InitZone"]
  },
  "lengths":[    "278",    "280",    "3F0",    "008",    "040",    "008",    "070",    "018",    "008",    "010",    "008",    "010",    "078",    "278",    "4B8",    "6F8",    "938",    "020",    "018",    "020",    "020",    "018",    "088",    "108",    "010",    "018",    "030",    "040",    "018",    "008",    "020",    "0A0",    "260",    "4C0",    "018",    "010",    "030",    "418",    "028",    "0A0",    "220",    "120",    "060",    "040",    "030",    "028",    "040",    "030",    "038",    "048",    "090",    "030",    "020",    "018",    "050",    "020",    "018",    "010",    "018",    "168",    "008",    "E18",    "348",    "418",    "008",    "180",    "180",    "180",    "2E8",    "588",    "168",    "2C8",    "060",    "208",    "408",    "108",    "048",    "088",    "018",    "040",    "080",    "0A0",    "088",    "068",    "010",    "010",    "008",    "018",    "048",    "108",    "010",    "040",    "008",    "080",    "010",    "040",    "280",    "310",    "4C0",    "028",    "020",    "058",    "050",    "020",    "128",    "C30",    "050",    "020",    "0C0",    "010",    "010",    "010",    "040",    "030",    "028",    "068"]
}