{
  "version":"2024.04.23",
  "region":"Global",
  "ver_id":10248665,
  "opcodes":{
    "0":[      "1407056e6",      "39C",      "280",      "PlayerSpawn"],
    "1":[      "140705716",      "0A7",      "288",      "NpcSpawn"],
    "2":[      "140705746",      "338",      "3F8",      "NpcSpawn2"],
    "3":[      "140705776",      "195",      "008",      "ActorFreeSpawn"],
    "4":[      "1407057a6",      "3B8",      "040",      "ObjectSpawn"],
    "5":[      "1407057d6",      "1D8",      "008",      "ObjectDespawn"],
    "6":[      "140705806",      "31D",      "070",      "CreateTreasure"],
    "7":[      "140705836",      "0C6",      "018",      "OpenTreasure"],
    "8":[      "140705866",      "142",      "008",      "TreasureFadeOut"],
    "9":[      "140705896",      "11C",      "010",      "ActorMove"],
    "10":[      "1407058c6",      "21C",      "008",      "_record_unk10_"],
    "11":[      "1407058f6",      "15B",      "010",      "Transfer"],
    "12":[      "140705926",      "37D",      "078",      "Effect"],
    "13":[      "140705956",      "0F4",      "278",      "AoeEffect8"],
    "14":[      "140705986",      "121",      "4B8",      "AoeEffect16"],
    "15":[      "1407059b6",      "2E3",      "6F8",      "AoeEffect24"],
    "16":[      "1407059e6",      "1FB",      "938",      "AoeEffect32"],
    "17":[      "140705a16",      "1BB",      "020",      "ActorCast"],
    "18":[      "140705a6b",      "148",      "018",      "ActorControl"],
    "19":[      "140705acb",      "32C",      "020",      "ActorControlTarget"],
    "20":[      "140705b64",      "25D",      "020",      "ActorControlSelf"],
    "21":[      "140705d46",      "3A6",      "018",      "DirectorVars"],
    "22":[      "140705d76",      "0FD",      "088",      "ContentDirectorSync"],
    "23":[      "140705da6",      "226",      "108",      "_record_unk23_"],
    "24":[      "140705dd6",      "2FC",      "010",      "EnvironmentControl"],
    "25":[      "140705e06",      "2DF",      "018",      "_record_unk25_"],
    "26":[      "140705e36",      "27A",      "030",      "_record_unk26_"],
    "27":[      "140705e66",      "1C2",      "040",      "_record_unk27_"],
    "28":[      "140705e96",      "12D",      "018",      "_record_unk28_"],
    "29":[      "140705ec6",      "0B2",      "008",      "_record_unk29_"],
    "30":[      "140705ef6",      "0A6",      "020",      "LandSetMap"],
    "31":[      "140705f26",      "0FA",      "0A0",      "_record_unk31_"],
    "32":[      "140705f56",      "1B3",      "260",      "_record_unk32_"],
    "33":[      "140705f86",      "2A3",      "4C0",      "_record_unk33_"],
    "34":[      "140705fc2",      "146",      "018",      "EventStart"],
    "35":[      "14070603b",      "339",      "010",      "EventFinish"],
    "36":[      "1407060cf",      "155",      "028",      "EventPlay"],
    "37":[      "1407060e2",      "0D2",      "060",      "EventPlay16"],
    "38":[      "1407060f5",      "0D0",      "030",      "EventPlay4"],
    "39":[      "140706108",      "073",      "418",      "EventPlay255"],
    "40":[      "14070611b",      "1D4",      "120",      "EventPlay64"],
    "41":[      "140706149",      "39F",      "220",      "EventPlay128"],
    "42":[      "14070615c",      "2CF",      "0A0",      "EventPlay32"],
    "43":[      "14070616f",      "22B",      "040",      "EventPlay8"],
    "44":[      "1407061a6",      "300",      "028",      "BattleTalk2"],
    "45":[      "1407061b9",      "211",      "030",      "BattleTalk4"],
    "46":[      "1407061cc",      "103",      "040",      "BattleTalk8"],
    "47":[      "140706209",      "387",      "038",      "BalloonTalk4"],
    "48":[      "14070621c",      "29C",      "030",      "BalloonTalk2"],
    "49":[      "14070622f",      "262",      "048",      "BalloonTalk8"],
    "50":[      "140706278",      "3A9",      "018",      "SystemLogMessage"],
    "51":[      "14070628b",      "1EC",      "030",      "SystemLogMessage48"],
    "52":[      "14070629e",      "194",      "050",      "SystemLogMessage80"],
    "53":[      "1407062b1",      "16F",      "020",      "SystemLogMessage32"],
    "54":[      "1407062c4",      "0D8",      "090",      "SystemLogMessage144"],
    "55":[      "1407062f6",      "1DA",      "020",      "NpcYell"],
    "56":[      "140706326",      "29D",      "018",      "ActorSetPos"],
    "57":[      "140706356",      "124",      "010",      "PrepareZoning"],
    "58":[      "140706386",      "0F3",      "018",      "_record_unk58_"],
    "59":[      "1407063b6",      "163",      "168",      "StatusEffectList3"],
    "60":[      "1407063e6",      "253",      "2D0",      "unk"],
    "61":[      "140706416",      "21D",      "008",      "WeatherChange"],
    "62":[      "140706452",      "164",      "E18",      "UpdateParty"],
    "63":[      "1407064e6",      "138",      "348",      "UpdateAlliance"],
    "64":[      "140706516",      "0A2",      "418",      "UpdateSpAlliance"],
    "65":[      "140706546",      "07D",      "008",      "UpdateHpMpTp"],
    "66":[      "140706576",      "383",      "180",      "StatusEffectList"],
    "67":[      "1407065a6",      "3A8",      "180",      "EurekaStatusEffectList"],
    "68":[      "1407065d6",      "369",      "180",      "StatusEffectList2"],
    "69":[      "140706606",      "28C",      "2E8",      "BossStatusEffectList"],
    "70":[      "14070664f",      "366",      "588",      "EffectResult16"],
    "71":[      "140706662",      "360",      "2C8",      "EffectResult8"],
    "72":[      "140706675",      "336",      "060",      "EffectResult"],
    "73":[      "140706688",      "139",      "168",      "EffectResult4"],
    "74":[      "1407066d4",      "1B5",      "048",      "EffectResultBasic4"],
    "75":[      "1407066e7",      "105",      "208",      "EffectResultBasic32"],
    "76":[      "1407066fa",      "0C8",      "408",      "EffectResultBasic64"],
    "77":[      "14070670d",      "200",      "108",      "EffectResultBasic16"],
    "78":[      "140706732",      "38E",      "088",      "EffectResultBasic8"],
    "79":[      "140706745",      "23A",      "018",      "EffectResultBasic"],
    "80":[      "140706776",      "249",      "040",      "PartyPos"],
    "81":[      "1407067a6",      "22E",      "080",      "AlliancePos"],
    "82":[      "1407067d6",      "33F",      "0A0",      "SpAlliancePos"],
    "83":[      "140706806",      "289",      "088",      "PlaceMarker"],
    "84":[      "140706836",      "30A",      "068",      "PlaceFieldMarkerPreset"],
    "85":[      "140706866",      "2E4",      "010",      "PlaceFieldMarker"],
    "86":[      "140706896",      "3B3",      "010",      "ActorGauge"],
    "87":[      "1407068c6",      "0C1",      "008",      "CharaVisualEffect"],
    "88":[      "1407068f6",      "19F",      "018",      "Fall"],
    "89":[      "140706926",      "2A7",      "048",      "UpdateHate"],
    "90":[      "140706956",      "26B",      "108",      "UpdateHater"],
    "91":[      "140706986",      "2C3",      "010",      "FirstAttack"],
    "92":[      "1407069b6",      "27D",      "048",      "ModelEquip"],
    "93":[      "1407069e6",      "33A",      "008",      "EquipDisplayFlags"],
    "94":[      "140706a16",      "1E0",      "080",      "_record_unk94"],
    "95":[      "140706a46",      "190",      "010",      "_record_unk95"],
    "96":[      "140706a76",      "392",      "040",      "_record_unk96"],
    "97":[      "140706aa6",      "36F",      "280",      "_record_unk97"],
    "98":[      "140706ad6",      "28A",      "310",      "_record_unk98"],
    "99":[      "140706b06",      "10A",      "4C0",      "_record_unk99"],
    "100":[      "140706b36",      "3B6",      "028",      "_record_unk100"],
    "101":[      "140706b66",      "111",      "020",      "_record_unk101"],
    "102":[      "140706b96",      "2B3",      "058",      "_record_unk102"],
    "103":[      "140706bc6",      "1B9",      "050",      "_record_unk103"],
    "104":[      "140706bf6",      "0EE",      "020",      "_record_unk104"],
    "105":[      "140706c26",      "0F8",      "128",      "_record_unk105"],
    "106":[      "140706c56",      "2DC",      "C30",      "_record_unk106"],
    "107":[      "140706c86",      "098",      "050",      "_record_unk107"],
    "108":[      "140706cb6",      "379",      "020",      "_record_unk108"],
    "109":[      "140706ce6",      "370",      "0C0",      "_record_unk109"],
    "110":[      "140706d16",      "09A",      "010",      "_record_unk110"],
    "111":[      "140706d46",      "218",      "010",      "UnMount"],
    "112":[      "140706d76",      "09F",      "010",      "Mount"],
    "113":[      "140706da6",      "1E5",      "040",      "PlayMotionSync"],
    "114":[      "140706ddb",      "376",      "030",      "CountdownInitiate"],
    "115":[      "140706e16",      "2B7",      "028",      "CountdownCancel"],
    "116":[      "140707592",      "2D1",      "068",      "InitZone"]
  },
  "lengths":[    "280",    "288",    "3F8",    "008",    "040",    "008",    "070",    "018",    "008",    "010",    "008",    "010",    "078",    "278",    "4B8",    "6F8",    "938",    "020",    "018",    "020",    "020",    "018",    "088",    "108",    "010",    "018",    "030",    "040",    "018",    "008",    "020",    "0A0",    "260",    "4C0",    "018",    "010",    "028",    "060",    "030",    "418",    "120",    "220",    "0A0",    "040",    "028",    "030",    "040",    "038",    "030",    "048",    "018",    "030",    "050",    "020",    "090",    "020",    "018",    "010",    "018",    "168",    "2D0",    "008",    "E18",    "348",    "418",    "008",    "180",    "180",    "180",    "2E8",    "588",    "2C8",    "060",    "168",    "048",    "208",    "408",    "108",    "088",    "018",    "040",    "080",    "0A0",    "088",    "068",    "010",    "010",    "008",    "018",    "048",    "108",    "010",    "048",    "008",    "080",    "010",    "040",    "280",    "310",    "4C0",    "028",    "020",    "058",    "050",    "020",    "128",    "C30",    "050",    "020",    "0C0",    "010",    "010",    "010",    "040",    "030",    "028",    "068"]
}