{
    "version":"2023.05.31",
    "region":"Global",
    "lists":{
        "ServerZoneIpcType":[
            {
                "name":"PlayerSpawn",
                "opcode":593
            },
            {
                "name":"NpcSpawn",
                "opcode":284
            },
            {
                "name":"NpcSpawn2",
                "opcode":900
            },
            {
                "name":"ActorFreeSpawn",
                "opcode":551
            },
            {
                "name":"ObjectSpawn",
                "opcode":298
            },
            {
                "name":"ObjectDespawn",
                "opcode":945
            },
            {
                "name":"CreateTreasure",
                "opcode":409
            },
            {
                "name":"OpenTreasure",
                "opcode":571
            },
            {
                "name":"TreasureFadeOut",
                "opcode":234
            },
            {
                "name":"ActorMove",
                "opcode":909
            },
            {
                "name":"_record_unk10_",
                "opcode":379
            },
            {
                "name":"Transfer",
                "opcode":359
            },
            {
                "name":"Effect",
                "opcode":650
            },
            {
                "name":"AoeEffect8",
                "opcode":349
            },
            {
                "name":"AoeEffect16",
                "opcode":436
            },
            {
                "name":"AoeEffect24",
                "opcode":842
            },
            {
                "name":"AoeEffect32",
                "opcode":268
            },
            {
                "name":"ActorCast",
                "opcode":845
            },
            {
                "name":"ActorControl",
                "opcode":928
            },
            {
                "name":"ActorControlTarget",
                "opcode":957
            },
            {
                "name":"ActorControlSelf",
                "opcode":646
            },
            {
                "name":"DirectorVars",
                "opcode":361
            },
            {
                "name":"ContentDirectorSync",
                "opcode":939
            },
            {
                "name":"_record_unk23_",
                "opcode":177
            },
            {
                "name":"EnvironmentControl",
                "opcode":249
            },
            {
                "name":"_record_unk29_",
                "opcode":700
            },
            {
                "name":"LandSetMap",
                "opcode":589
            },
            {
                "name":"_record_unk31_",
                "opcode":904
            },
            {
                "name":"EventStart",
                "opcode":175
            },
            {
                "name":"EventFinish",
                "opcode":332
            },
            {
                "name":"EventPlay",
                "opcode":722
            },
            {
                "name":"EventPlay4",
                "opcode":188
            },
            {
                "name":"EventPlay8",
                "opcode":592
            },
            {
                "name":"EventPlay16",
                "opcode":913
            },
            {
                "name":"EventPlay32",
                "opcode":511
            },
            {
                "name":"EventPlay64",
                "opcode":446
            },
            {
                "name":"EventPlay128",
                "opcode":815
            },
            {
                "name":"EventPlay255",
                "opcode":228
            },
            {
                "name":"BattleTalk2",
                "opcode":953
            },
            {
                "name":"BattleTalk4",
                "opcode":875
            },
            {
                "name":"BattleTalk8",
                "opcode":615
            },
            {
                "name":"BalloonTalk2",
                "opcode":438
            },
            {
                "name":"BalloonTalk4",
                "opcode":503
            },
            {
                "name":"BalloonTalk8",
                "opcode":831
            },
            {
                "name":"SystemLogMessage",
                "opcode":403
            },
            {
                "name":"SystemLogMessage32",
                "opcode":408
            },
            {
                "name":"SystemLogMessage48",
                "opcode":872
            },
            {
                "name":"SystemLogMessage80",
                "opcode":689
            },
            {
                "name":"SystemLogMessage144",
                "opcode":211
            },
            {
                "name":"NpcYell",
                "opcode":201
            },
            {
                "name":"ActorSetPos",
                "opcode":699
            },
            {
                "name":"PrepareZoning",
                "opcode":394
            },
            {
                "name":"_record_unk58_",
                "opcode":250
            },
            {
                "name":"WeatherChange",
                "opcode":370
            },
            {
                "name":"UpdateParty",
                "opcode":505
            },
            {
                "name":"UpdateAlliance",
                "opcode":707
            },
            {
                "name":"UpdateSpAlliance",
                "opcode":220
            },
            {
                "name":"UpdateHpMpTp",
                "opcode":142
            },
            {
                "name":"StatusEffectList",
                "opcode":459
            },
            {
                "name":"StatusEffectList2",
                "opcode":397
            },
            {
                "name":"StatusEffectList3",
                "opcode":926
            },
            {
                "name":"EurekaStatusEffectList",
                "opcode":841
            },
            {
                "name":"BossStatusEffectList",
                "opcode":715
            },
            {
                "name":"PartyPos",
                "opcode":294
            },
            {
                "name":"AlliancePos",
                "opcode":336
            },
            {
                "name":"SpAlliancePos",
                "opcode":184
            },
            {
                "name":"PlaceMarker",
                "opcode":138
            },
            {
                "name":"PlaceFieldMarkerPreset",
                "opcode":176
            },
            {
                "name":"PlaceFieldMarker",
                "opcode":760
            },
            {
                "name":"ActorGauge",
                "opcode":591
            },
            {
                "name":"CharaVisualEffect",
                "opcode":761
            },
            {
                "name":"Fall",
                "opcode":253
            },
            {
                "name":"UpdateHate",
                "opcode":419
            },
            {
                "name":"UpdateHater",
                "opcode":474
            },
            {
                "name":"FirstAttack",
                "opcode":215
            },
            {
                "name":"ModelEquip",
                "opcode":944
            },
            {
                "name":"EquipDisplayFlags",
                "opcode":401
            },
            {
                "name":"UnMount",
                "opcode":862
            },
            {
                "name":"Mount",
                "opcode":581
            },
            {
                "name":"PlayMotionSync",
                "opcode":930
            },
            {
                "name":"CountdownInitiate",
                "opcode":671
            },
            {
                "name":"CountdownCancel",
                "opcode":229
            },
            {
                "name":"InitZone",
                "opcode":720
            },
            {
                "name":"Examine",
                "opcode":117
            },
            {
                "name":"ExamineSearchInfo",
                "opcode":283
            },
            {
                "name":"InventoryActionAck",
                "opcode":354
            },
            {
                "name":"MarketBoardItemListing",
                "opcode":290
            },
            {
                "name":"MarketBoardItemListingCount",
                "opcode":151
            },
            {
                "name":"MarketBoardItemListingHistory",
                "opcode":995
            },
            {
                "name":"MarketBoardSearchResult",
                "opcode":129
            },
            {
                "name":"MarketBoardPurchase",
                "opcode":590
            },
            {
                "name":"PlayerSetup",
                "opcode":611
            },
            {
                "name":"PlayerStats",
                "opcode":620
            },
            {
                "name":"Playtime",
                "opcode":399
            },
            {
                "name":"UpdateClassInfo",
                "opcode":344
            },
            {
                "name":"UpdateInventorySlot",
                "opcode":890
            },
            {
                "name":"UpdateSearchInfo",
                "opcode":174
            },
            {
                "name":"WardLandInfo",
                "opcode":400
            },
            {
                "name":"CEDirector",
                "opcode":878
            },
            {
                "name":"Logout",
                "opcode":395
            },
            {
                "name":"FreeCompanyInfo",
                "opcode":386
            },
            {
                "name":"FreeCompanyDialog",
                "opcode":542
            },
            {
                "name":"AirshipStatusList",
                "opcode":214
            },
            {
                "name":"AirshipStatus",
                "opcode":992
            },
            {
                "name":"AirshipExplorationResult",
                "opcode":181
            },
            {
                "name":"SubmarineStatusList",
                "opcode":317
            },
            {
                "name":"SubmarineProgressionStatus",
                "opcode":385
            },
            {
                "name":"SubmarineExplorationResult",
                "opcode":351
            },
            {
                "name":"CFPreferredRole",
                "opcode":755
            },
            {
                "name":"CompanyAirshipStatus",
                "opcode":943
            },
            {
                "name":"CompanySubmersibleStatus",
                "opcode":751
            },
            {
                "name":"ContentFinderNotifyPop",
                "opcode":726
            },
            {
                "name":"FateInfo",
                "opcode":396
            },
            {
                "name":"UpdateRecastTimes",
                "opcode":924
            },
            {
                "name":"SocialList",
                "opcode":893
            },
            {
                "name":"IslandWorkshopSupplyDemand",
                "opcode":365
            },
            {
                "name":"RSV",
                "opcode":430
            },
            {
                "name":"RSF",
                "opcode":203
            }
        ],
        "ClientZoneIpcType":[
            {
                "name":"ActionRequest",
                "opcode":115
            },
            {
                "name":"ActionRequestGroundTargeted",
                "opcode":933
            },
            {
                "name":"ChatHandler",
                "opcode":795
            },
            {
                "name":"ClientTrigger ",
                "opcode":218
            },
            {
                "name":"InventoryModifyHandler",
                "opcode":643
            },
            {
                "name":"MarketBoardPurchaseHandler",
                "opcode":141
            },
            {
                "name":"SetSearchInfoHandler",
                "opcode":267
            },
            {
                "name":"UpdatePositionHandler",
                "opcode":533
            },
            {
                "name":"UpdatePositionInstance",
                "opcode":327
            }
        ]
    }
}