{
  "version":"2024.03.08",
  "region":"Global",
  "ver_id":10042617,
  "opcodes":{
    "0":[      "140705546",      "285",      "280",      "PlayerSpawn"],
    "1":[      "140705576",      "3CE",      "288",      "NpcSpawn"],
    "2":[      "1407055a6",      "387",      "3F8",      "NpcSpawn2"],
    "3":[      "1407055d6",      "344",      "008",      "ActorFreeSpawn"],
    "4":[      "140705606",      "0C0",      "040",      "ObjectSpawn"],
    "5":[      "140705636",      "2DB",      "008",      "ObjectDespawn"],
    "6":[      "140705666",      "124",      "070",      "CreateTreasure"],
    "7":[      "140705696",      "0E7",      "018",      "OpenTreasure"],
    "8":[      "1407056c6",      "319",      "008",      "TreasureFadeOut"],
    "9":[      "1407056f6",      "1A0",      "010",      "ActorMove"],
    "10":[      "140705726",      "312",      "008",      "_record_unk10_"],
    "11":[      "140705756",      "0F2",      "010",      "Transfer"],
    "12":[      "140705786",      "0D3",      "078",      "Effect"],
    "13":[      "1407057b6",      "356",      "278",      "AoeEffect8"],
    "14":[      "1407057e6",      "21E",      "4B8",      "AoeEffect16"],
    "15":[      "140705816",      "092",      "6F8",      "AoeEffect24"],
    "16":[      "140705846",      "237",      "938",      "AoeEffect32"],
    "17":[      "140705876",      "165",      "020",      "ActorCast"],
    "18":[      "1407058cb",      "2C9",      "018",      "ActorControl"],
    "19":[      "14070592b",      "169",      "020",      "ActorControlTarget"],
    "20":[      "1407059c4",      "340",      "020",      "ActorControlSelf"],
    "21":[      "140705ba6",      "361",      "018",      "DirectorVars"],
    "22":[      "140705bd6",      "339",      "088",      "ContentDirectorSync"],
    "23":[      "140705c06",      "1BD",      "108",      "_record_unk23_"],
    "24":[      "140705c36",      "2D8",      "010",      "EnvironmentControl"],
    "25":[      "140705c66",      "0B0",      "018",      "_record_unk25_"],
    "26":[      "140705c96",      "2BB",      "030",      "_record_unk26_"],
    "27":[      "140705cc6",      "24E",      "040",      "_record_unk27_"],
    "28":[      "140705cf6",      "333",      "018",      "_record_unk28_"],
    "29":[      "140705d26",      "1D9",      "008",      "_record_unk29_"],
    "30":[      "140705d56",      "39C",      "020",      "LandSetMap"],
    "31":[      "140705d86",      "2DC",      "0A0",      "_record_unk31_"],
    "32":[      "140705db6",      "384",      "260",      "_record_unk32_"],
    "33":[      "140705de6",      "29D",      "4C0",      "_record_unk33_"],
    "34":[      "140705e22",      "3D6",      "018",      "EventStart"],
    "35":[      "140705e9b",      "3C7",      "010",      "EventFinish"],
    "36":[      "140705f32",      "232",      "220",      "EventPlay128"],
    "37":[      "140705f45",      "203",      "040",      "EventPlay8"],
    "38":[      "140705f58",      "144",      "0A0",      "EventPlay32"],
    "39":[      "140705f6b",      "0EC",      "060",      "EventPlay16"],
    "40":[      "140705f7e",      "335",      "028",      "EventPlay"],
    "41":[      "140705fa6",      "3E4",      "120",      "EventPlay64"],
    "42":[      "140705fb9",      "3A3",      "418",      "EventPlay255"],
    "43":[      "140705fcc",      "37D",      "030",      "EventPlay4"],
    "44":[      "140706009",      "348",      "040",      "BattleTalk8"],
    "45":[      "14070601c",      "2EF",      "028",      "BattleTalk2"],
    "46":[      "14070602f",      "1A3",      "030",      "BattleTalk4"],
    "47":[      "140706066",      "32C",      "048",      "BalloonTalk8"],
    "48":[      "140706079",      "2DD",      "030",      "BalloonTalk2"],
    "49":[      "14070608c",      "2C1",      "038",      "BalloonTalk4"],
    "50":[      "1407060d5",      "255",      "018",      "SystemLogMessage"],
    "51":[      "1407060e8",      "20C",      "050",      "SystemLogMessage80"],
    "52":[      "1407060fb",      "1CF",      "090",      "SystemLogMessage144"],
    "53":[      "14070610e",      "14A",      "030",      "SystemLogMessage48"],
    "54":[      "140706121",      "13A",      "020",      "SystemLogMessage32"],
    "55":[      "140706156",      "096",      "020",      "NpcYell"],
    "56":[      "140706186",      "079",      "018",      "ActorSetPos"],
    "57":[      "1407061b6",      "38E",      "010",      "PrepareZoning"],
    "58":[      "1407061e6",      "082",      "018",      "_record_unk58_"],
    "59":[      "140706216",      "10E",      "168",      "StatusEffectList3"],
    "60":[      "140706246",      "23E",      "2D0",      "unk"],
    "61":[      "140706276",      "0B2",      "008",      "WeatherChange"],
    "62":[      "1407062b2",      "164",      "E18",      "UpdateParty"],
    "63":[      "140706346",      "282",      "348",      "UpdateAlliance"],
    "64":[      "140706376",      "29C",      "418",      "UpdateSpAlliance"],
    "65":[      "1407063a6",      "24C",      "008",      "UpdateHpMpTp"],
    "66":[      "1407063d6",      "33E",      "180",      "StatusEffectList"],
    "67":[      "140706406",      "298",      "180",      "EurekaStatusEffectList"],
    "68":[      "140706436",      "1AC",      "180",      "StatusEffectList2"],
    "69":[      "140706466",      "34A",      "2E8",      "BossStatusEffectList"],
    "70":[      "1407064af",      "32E",      "060",      "EffectResult"],
    "71":[      "1407064c2",      "328",      "2C8",      "EffectResult8"],
    "72":[      "1407064d5",      "11F",      "588",      "EffectResult16"],
    "73":[      "1407064e8",      "0E0",      "168",      "EffectResult4"],
    "74":[      "140706537",      "26D",      "018",      "EffectResultBasic"],
    "75":[      "14070654a",      "1C2",      "108",      "EffectResultBasic16"],
    "76":[      "14070655d",      "084",      "408",      "EffectResultBasic64"],
    "77":[      "140706570",      "2E3",      "048",      "EffectResultBasic4"],
    "78":[      "140706592",      "392",      "208",      "EffectResultBasic32"],
    "79":[      "1407065a5",      "38A",      "088",      "EffectResultBasic8"],
    "80":[      "1407065d6",      "3DE",      "040",      "PartyPos"],
    "81":[      "140706606",      "208",      "080",      "AlliancePos"],
    "82":[      "140706636",      "3B7",      "0A0",      "SpAlliancePos"],
    "83":[      "140706666",      "17C",      "088",      "PlaceMarker"],
    "84":[      "140706696",      "0E3",      "068",      "PlaceFieldMarkerPreset"],
    "85":[      "1407066c6",      "1DB",      "010",      "PlaceFieldMarker"],
    "86":[      "1407066f6",      "07B",      "010",      "ActorGauge"],
    "87":[      "140706726",      "288",      "008",      "CharaVisualEffect"],
    "88":[      "140706756",      "310",      "018",      "Fall"],
    "89":[      "140706786",      "276",      "048",      "UpdateHate"],
    "90":[      "1407067b6",      "143",      "108",      "UpdateHater"],
    "91":[      "1407067e6",      "30A",      "010",      "FirstAttack"],
    "92":[      "140706816",      "2B6",      "048",      "ModelEquip"],
    "93":[      "140706846",      "1F6",      "008",      "EquipDisplayFlags"],
    "94":[      "140706876",      "326",      "080",      "_record_unk94"],
    "95":[      "1407068a6",      "3C2",      "010",      "_record_unk95"],
    "96":[      "1407068d6",      "10F",      "040",      "_record_unk96"],
    "97":[      "140706906",      "130",      "280",      "_record_unk97"],
    "98":[      "140706936",      "3D0",      "310",      "_record_unk98"],
    "99":[      "140706966",      "1EF",      "4C0",      "_record_unk99"],
    "100":[      "140706996",      "1B4",      "028",      "_record_unk100"],
    "101":[      "1407069c6",      "31E",      "020",      "_record_unk101"],
    "102":[      "1407069f6",      "294",      "058",      "_record_unk102"],
    "103":[      "140706a26",      "265",      "050",      "_record_unk103"],
    "104":[      "140706a56",      "235",      "020",      "_record_unk104"],
    "105":[      "140706a86",      "3CF",      "128",      "_record_unk105"],
    "106":[      "140706ab6",      "3D8",      "C30",      "_record_unk106"],
    "107":[      "140706ae6",      "390",      "050",      "_record_unk107"],
    "108":[      "140706b16",      "297",      "020",      "_record_unk108"],
    "109":[      "140706b46",      "273",      "0C0",      "_record_unk109"],
    "110":[      "140706b76",      "198",      "010",      "_record_unk110"],
    "111":[      "140706ba6",      "16B",      "010",      "UnMount"],
    "112":[      "140706bd6",      "2A5",      "010",      "Mount"],
    "113":[      "140706c06",      "06E",      "040",      "PlayMotionSync"],
    "114":[      "140706c3b",      "32B",      "030",      "CountdownInitiate"],
    "115":[      "140706c76",      "334",      "028",      "CountdownCancel"],
    "116":[      "1407073f2",      "2D7",      "068",      "InitZone"]
  },
  "lengths":[    "280",    "288",    "3F8",    "008",    "040",    "008",    "070",    "018",    "008",    "010",    "008",    "010",    "078",    "278",    "4B8",    "6F8",    "938",    "020",    "018",    "020",    "020",    "018",    "088",    "108",    "010",    "018",    "030",    "040",    "018",    "008",    "020",    "0A0",    "260",    "4C0",    "018",    "010",    "220",    "040",    "0A0",    "060",    "028",    "120",    "418",    "030",    "040",    "028",    "030",    "048",    "030",    "038",    "018",    "050",    "090",    "030",    "020",    "020",    "018",    "010",    "018",    "168",    "2D0",    "008",    "E18",    "348",    "418",    "008",    "180",    "180",    "180",    "2E8",    "060",    "2C8",    "588",    "168",    "018",    "108",    "408",    "048",    "208",    "088",    "040",    "080",    "0A0",    "088",    "068",    "010",    "010",    "008",    "018",    "048",    "108",    "010",    "048",    "008",    "080",    "010",    "040",    "280",    "310",    "4C0",    "028",    "020",    "058",    "050",    "020",    "128",    "C30",    "050",    "020",    "0C0",    "010",    "010",    "010",    "040",    "030",    "028",    "068"]
}